<?xml version="1.0" encoding="UTF-8" standalone="no"?>
<!-- Created with Inkscape (http://www.inkscape.org/) -->

<svg
   width="128mm"
   height="128mm"
   viewBox="0 0 128 128"
   version="1.1"
   id="svg5"
   inkscape:version="1.1 (c68e22c387, 2021-05-23)"
   sodipodi:docname="128.svg"
   xmlns:inkscape="http://www.inkscape.org/namespaces/inkscape"
   xmlns:sodipodi="http://sodipodi.sourceforge.net/DTD/sodipodi-0.dtd"
   xmlns="http://www.w3.org/2000/svg"
   xmlns:svg="http://www.w3.org/2000/svg">
  <sodipodi:namedview
     id="namedview7"
     pagecolor="#14b21f"
     bordercolor="#666666"
     borderopacity="0"
     inkscape:pageshadow="2"
     inkscape:pageopacity="0"
     inkscape:pagecheckerboard="false"
     inkscape:document-units="mm"
     showgrid="false"
     width="16mm"
     inkscape:zoom="0.5052024"
     inkscape:cx="423.5926"
     inkscape:cy="650.23444"
     inkscape:window-width="1920"
     inkscape:window-height="991"
     inkscape:window-x="-9"
     inkscape:window-y="-9"
     inkscape:window-maximized="1"
     inkscape:current-layer="layer1"
     inkscape:showpageshadow="true"
     borderlayer="false" />
  <defs
     id="defs2" />
  <g
     inkscape:groupmode="layer"
     id="layer3"
     inkscape:label="bg">
    <circle
       style="fill:#18d825;fill-opacity:0.642857;stroke:none;stroke-width:4.14515;stroke-miterlimit:4;stroke-dasharray:none;stroke-opacity:0.997143"
       id="path1721"
       cx="63.500744"
       cy="63.500744"
       r="63.498684" />
  </g>
  <g
     inkscape:label="Слой 1"
     inkscape:groupmode="layer"
     id="layer1">
    <path
       id="path41"
       style="fill:#ff0000;fill-opacity:0;fill-rule:evenodd;stroke:#ffffff;stroke-width:17.1269;stroke-miterlimit:4;stroke-dasharray:none;stroke-opacity:1"
       d="M 46.374382,32.117971 A 18.272335,18.27179 0 0 1 28.102048,50.389761 18.272335,18.27179 0 0 1 9.8297141,32.117971 18.272335,18.27179 0 0 1 28.102048,13.84618 18.272335,18.27179 0 0 1 46.374382,32.117971 Z" />
    <rect
       style="fill:#ffffff;fill-opacity:1;stroke:none;stroke-width:10.1519;stroke-miterlimit:4;stroke-dasharray:none;stroke-opacity:1"
       id="rect1141"
       width="77.145515"
       height="15.428642"
       x="47.870586"
       y="24.885803"
       ry="7.7143211" />
    <rect
       style="fill:#ffffff;fill-opacity:1;stroke:none;stroke-width:11.0127;stroke-miterlimit:4;stroke-dasharray:none;stroke-opacity:1"
       id="rect1275"
       width="24.208813"
       height="16.392929"
       x="91.48555"
       y="37.421574"
       ry="4.8214512" />
    <g
       id="g26260"
       style="stroke:none;stroke-opacity:1"
       transform="matrix(7.8881704,0,0,7.8879156,-0.01427759,-0.01403779)">
      <path
         d="m 0.812746,14.598497 v -4.513699 h 0.6173128 v 4.513699 z"
         style="font-size:6.41034px;line-height:1.25;font-family:Arial;-inkscape-font-specification:Arial;fill:#fffffd;fill-opacity:1;stroke:#ffffff;stroke-width:0.5;stroke-miterlimit:4;stroke-dasharray:none;stroke-opacity:1"
         id="path25537" />
      <g
         id="g25571"
         transform="translate(-0.13110907,-4.7899637e-4)"
         style="fill:#fffffd;fill-opacity:1;stroke:#ffffff;stroke-width:0.5;stroke-miterlimit:4;stroke-dasharray:none;stroke-opacity:1">
        <path
           d="m 2.623964,14.598976 v -4.513699 h 0.6173127 v 3.981046 h 2.2974217 v 0.532653 z"
           style="font-size:6.41034px;line-height:1.25;font-family:Arial;-inkscape-font-specification:Arial;fill:#fffffd;fill-opacity:1;stroke:#ffffff;stroke-width:0.5;stroke-miterlimit:4;stroke-dasharray:none;stroke-opacity:1"
           id="path25539" />
        <path
           d="m 6.0860065,12.400626 q 0,-1.123806 0.6236769,-1.758064 0.6236767,-0.637337 1.6101043,-0.637337 0.645951,0 1.164621,0.298655 0.5186703,0.298656 0.7891423,0.834388 0.273654,0.532654 0.273654,1.210017 0,0.686599 -0.286382,1.228489 -0.2863825,0.541891 -0.8114165,0.822072 -0.5250341,0.277103 -1.1328008,0.277103 -0.6586791,0 -1.177349,-0.307891 -0.51867,-0.307893 -0.7859601,-0.840547 -0.2672901,-0.532653 -0.2672901,-1.126885 z m 0.636405,0.0092 q 0,0.815914 0.4518474,1.286989 0.4550296,0.467996 1.1391647,0.467996 0.6968634,0 1.1455289,-0.474154 0.4518474,-0.474154 0.4518474,-1.345488 0,-0.551127 -0.1941035,-0.960625 -0.1909214,-0.412575 -0.5632183,-0.637336 -0.3691148,-0.22784 -0.8305083,-0.22784 -0.655497,0 -1.1296187,0.437207 -0.4709396,0.434127 -0.4709396,1.453251 z"
           style="font-size:6.41034px;line-height:1.25;font-family:Arial;-inkscape-font-specification:Arial;fill:#fffffd;fill-opacity:1;stroke:#ffffff;stroke-width:0.5;stroke-miterlimit:4;stroke-dasharray:none;stroke-opacity:1"
           id="path25541" />
        <path
           d="m 13.525579,12.828596 v -0.529574 l 1.976038,-0.003 v 1.674933 q -0.45503,0.350997 -0.938698,0.529575 -0.483667,0.175498 -0.992791,0.175498 -0.687317,0 -1.250536,-0.283261 -0.560036,-0.28634 -0.846418,-0.825151 -0.286382,-0.538812 -0.286382,-1.203858 0,-0.65889 0.2832,-1.228491 0.286382,-0.572679 0.820962,-0.849782 0.53458,-0.277102 1.231443,-0.277102 0.505942,0 0.913241,0.160103 0.410482,0.157026 0.642769,0.440286 0.232288,0.283261 0.353205,0.738942 l -0.556854,0.147787 q -0.105006,-0.344868 -0.260926,-0.541919 -0.155919,-0.197052 -0.445484,-0.31405 -0.289564,-0.120078 -0.642769,-0.120078 -0.423209,0 -0.731865,0.126236 -0.308656,0.123157 -0.499578,0.326365 -0.187739,0.203209 -0.292746,0.446444 -0.178194,0.418734 -0.178194,0.908282 0,0.603469 0.213196,1.009886 0.216378,0.406418 0.626859,0.603469 0.410481,0.197051 0.871875,0.197051 0.400935,0 0.782778,-0.147788 0.381842,-0.150867 0.579128,-0.320208 v -0.840546 z"
           style="font-size:6.41034px;line-height:1.25;font-family:Arial;-inkscape-font-specification:Arial;fill:#fffffd;fill-opacity:1;stroke:#ffffff;stroke-width:0.5;stroke-miterlimit:4;stroke-dasharray:none;stroke-opacity:1"
           id="path25543" />
      </g>
    </g>
  </g>
</svg>
